https://the-eye.eu/public/MSDN/Windows%2010/en_windows_10_enterprise_2016_ltsb_n_x64_dvd_9057894.iso
	out=en_windows_10_enterprise_2016_ltsb_n_x64_dvd_9057894.iso
	checksum=sha-1=b5d4911bd53ec5029781ade0937dad43c4ed90f6

